{
  "name": "Credit",
  "fields": [
    {
      "fieldName": "score",
      "fieldType": "Integer"
    },
    {
      "fieldName": "name",
      "fieldType": "Integer"
    },
    {
      "fieldName": "time",
      "fieldType": "String"
    },
    {
      "fieldName": "currencyUnit",
      "fieldType": "String"
    }
  ],
  "relationships": [
    {
      "relationshipType": "many-to-one",
      "otherEntityName": "invoice",
      "otherEntityRelationshipName": "credit",
      "relationshipName": "invoice"
    }
  ],
  "entityTableName": "credit",
  "dto": "no",
  "pagination": "no",
  "service": "serviceClass",
  "jpaMetamodelFiltering": true,
  "fluentMethods": true,
  "readOnly": false,
  "embedded": false,
  "applications": "*",
  "changelogDate": "20210428013448"
}
