{
  "name": "Payment",
  "fields": [
    {
      "fieldName": "name",
      "fieldType": "String"
    },
    {
      "fieldName": "bankAccountNumber",
      "fieldType": "Integer"
    },
    {
      "fieldName": "scoreNumber",
      "fieldType": "Integer"
    }
  ],
  "relationships": [
    {
      "relationshipType": "many-to-one",
      "otherEntityName": "invoice",
      "otherEntityRelationshipName": "payment",
      "relationshipName": "invoice"
    }
  ],
  "entityTableName": "payment",
  "dto": "no",
  "pagination": "no",
  "service": "serviceClass",
  "jpaMetamodelFiltering": true,
  "fluentMethods": true,
  "readOnly": false,
  "embedded": false,
  "applications": "*",
  "changelogDate": "20210428013446"
}
